XFxpbnRfey1cXGluZnR5fV57XFxpbmZ0eX18eCh0KSl8IA==
XFxpbnRfey1cXGluZnR5fV57XFxpbmZ0eX18eCh0KSl8IA==
IFxcaW50X3stXFxpbmZ0eX1ee1xcaW5mdHl9fHgodCkpfCBeezJ9ZHQ=
XFxsaW1fe3tULT5cXGluZnR5fX0gMS9UICBcXGludF97PFQ+fV57fXx4KHQpKXwgXnsyfWR0ICBcXGx0ICBcXGluZnR5
MFxcbHQgXFxsaW1fe3tULT5cXGluZnR5fX0gMS9UICBcXGludF97PFQ+fV57fXx4KHQpKXwgXnsyfWR0ICBcXGx0ICBcXGluZnR5
MFxcbHQgICBcXGludF97LSBcXGluZnR5fV57XFxpbmZ0eX18eCh0KSl8IF57Mn1kdCAgXFxsdCAgXFxpbmZ0eQ==
eF97e29kZH19ICh0KT0oeCh0KSAtIHgoLXQpKVxcZGl2Mg==
eF97e2V2ZW59fSAodCk9KHgodCkgKyB4KC10KSlcXGRpdjI=
eF97e2V2ZW59fSBbbl09KHhbbl0gKyB4Wy1uXSlcXGRpdjIK
eF97e29kZH19IFtuXT0oeFtuXSAtIHhbLW5dKVxcZGl2Mgo=
XFxnZXFzbGFudCA=
XFxnZXEg
XFxzaWdtYV97e3h9fSBcXHNpZ21hX3t7cH19IFxcZ2VxICBcXGZyYWN7aH17Mn0=
XFxzaWdtYV97e3h9fSBcXHNpZ21hX3t7cH19IFxcZ2VxICBcXGZyYWN7aF97cH19ezJ9
aF97cH0gaXMgUGxhbmtcJ3MgQ29uc3RhbnQgaS5lLiBcXGZyYWN7aH17MlxccGl9
aF97cH0gPSAgXFxmcmFje2h9ezJcXHBpfQ==
aF97cH0=
